09-02 Pre-class activity
…
gini$average_gini

## [1] 0.3124444 0.4813333 0.4898387 0.4905882 0.3620256

What we want is one observation per country-year pair. That data would be considered long because it looks, well, long. There are a lot more observations this way! We can do this using the pivot_long function.

#Reshape command
gini_long <- gini %>% pivot_longer(x1978:x2018,names_to="year",names_prefix="x",values_to="gini")

# Year comes in as a string variable, let's make it a number
gini_long <- type_convert(gini_long)

gini_long

## # A tibble: 205 x 4
##    countries average_gini  year   gini
##    <chr>            <dbl> <dbl>  <dbl>
##  1 Australia        0.312  1978 NA    
##  2 Australia        0.312  1979  0.282
##  3 Australia        0.312  1980  0.282
##  4 Australia        0.312  1981  0.282
##  5 Australia        0.312  1982  0.282
##  6 Australia        0.312  1983  0.293
##  7 Australia        0.312  1984  0.293
##  8 Australia        0.312  1985  0.293
##  9 Australia        0.312  1986  0.293
## 10 Australia        0.312  1987  0.304
## #  with 195 more rows
…
