10-02 in-class activity
…
Make sure your data files are in the right working directory. You may need to adjust the names.

# Import outcome 1 and save as a df

income <- read_csv("shown_tract_kfr_rP_gP_pall.csv")

# Import outcome 2 and save as a df

jobdensity <- read_csv("shown_tract_job_density_2013.csv")

Take a look at your data (change names if you renamed your data frames!)

income

## # A tibble: 192 x 3
##          tract Name                                   Household_Income_rP_gP_pa
##          <dbl> <chr>                                                       <dbl>
##  1 26125151000 Bloomfield Village, Bloomfield Hills,                      83217
##  2 26125152700 Birmingham, MI                                              80100
##  3 26125152000 Bloomfield Hills, MI                                        79472
##  4 26125196600 Troy, MI                                                    77675
##  5 26125196800 Troy, MI                                                    76962
##  6 26125152600 Birmingham, MI                                              76088
##  7 26125137400 Novi, MI                                                    75867
##  8 26125188000 Huntington Woods, MI                                        75791
##  9 26125167900 Farmington Hills, MI                                        75691
## 10 26125196700 Troy, MI                                                    75441
## #  with 182 more rows

jobdensity

## # A tibble: 192 x 3
##          tract Name                                   Density_of_Jobs_in_2013
##          <dbl> <chr>                                                    <dbl>
##  1 26125183500 Royal Oak, MI                                            25093
##  2 26125161600 Southfield City Centre, Southfield, MI                   19750
##  3 26125162200 Southfield, MI                                           14799
##  4 26125197600 Troy, MI                                                 13947
##  5 26125162100 Southfield, MI                                           11899
##  6 26125160900 Southfield, MI                                           10492
##  7 26125160300 Southfield, MI                                            8745
##  8 26125153200 Birmingham, MI                                            8652
##  9 26163556500 Livonia, MI                                               7584
## 10 26125197701 Troy, MI                                                  7236
## #  with 182 more rows

Now, were going to use join_by() to merge our two data sets. Note that the by part of the function is optional. If you delete it, it will join based on all variables with the same names across the two data sets - in this case, just tract and Name.

merged_data <- full_join(by = c("tract", "Name"), income, jobdensity)
merged_data

## # A tibble: 192 x 4
##         tract Name                     Household_Income_rP_ Density_of_Jobs_in
##         <dbl> <chr>                                    <dbl>               <dbl>
##  1    2.61e10 Bloomfield Village, Blo                 83217               476. 
##  2    2.61e10 Birmingham, MI                           80100               386. 
##  3    2.61e10 Bloomfield Hills, MI                     79472              1160  
##  4    2.61e10 Troy, MI                                 77675               457. 
##  5    2.61e10 Troy, MI                                 76962              3838  
##  6    2.61e10 Birmingham, MI                           76088              1316  
##  7    2.61e10 Novi, MI                                 75867                59.4
##  8    2.61e10 Huntington Woods, MI                     75791               671. 
##  9    2.61e10 Farmington Hills, MI                     75691                82  
## 10    2.61e10 Troy, MI                                 75441              1296  
## #  with 182 more rows
…
